<svg xmlns="http://www.w3.org/2000/svg" width="80" height="80" viewBox="0 0 80 80">
    <defs>
        <clipPath id="clip-path">
            <path id="Rectangle_580" fill="#155495" stroke="#707070" d="M0 0H80V80H0z" transform="translate(3348 281)"/>
        </clipPath>
        <style>
            .cls-3{fill:#155495}
        </style>
    </defs>
    <g id="Mask_Group_21" clip-path="url(#clip-path)" transform="translate(-3348 -281)">
        <g id="file_3_" transform="translate(3342.286 275.286)">
            <path id="Path_2668" d="M57.143 15.714v-7.98L69.408 20h-7.98a4.29 4.29 0 0 1-4.285-4.286z" class="cls-3"/>
            <path id="Path_2669" d="M65.714 51.429a17.143 17.143 0 1 0 17.143 17.142 17.163 17.163 0 0 0-17.143-17.142zm10 18.571h-10a1.411 1.411 0 0 1-1.1-.52c-.861-1.029-2.645-3.17-4.214-5.055l-2.923-3.511a1.429 1.429 0 1 1 2.2-1.829l6.714 8.057h9.33a1.429 1.429 0 1 1 0 2.857z" class="cls-3"/>
            <path id="Path_2670" d="M61.429 22.857a7.15 7.15 0 0 1-7.143-7.143v-10H12.857A4.291 4.291 0 0 0 8.571 10v71.429a4.291 4.291 0 0 0 4.286 4.286h42.566a20 20 0 0 1 16.006-36.31V22.857zM15.714 20h17.143a1.429 1.429 0 0 1 0 2.857H15.714a1.429 1.429 0 0 1 0-2.857zm0 8.571h8.571a1.429 1.429 0 1 1 0 2.857h-8.571a1.429 1.429 0 1 1 0-2.857zm0 8.571h28.572a1.429 1.429 0 0 1 0 2.857H15.714a1.429 1.429 0 0 1 0-2.857zm0 8.571h17.143a1.429 1.429 0 0 1 0 2.857H15.714a1.429 1.429 0 0 1 0-2.857zm11.429 28.573H15.714a1.429 1.429 0 1 1 0-2.857h11.429a1.429 1.429 0 1 1 0 2.857zm-12.857-10a1.428 1.428 0 0 1 1.429-1.429h8.571a1.429 1.429 0 1 1 0 2.857h-8.572a1.428 1.428 0 0 1-1.428-1.428zm24.286 10h-5.715a1.429 1.429 0 1 1 0-2.857h5.714a1.429 1.429 0 1 1 0 2.857zm0-8.571H30a1.429 1.429 0 0 1 0-2.857h8.571a1.429 1.429 0 0 1 0 2.857zm2.857-8.571H15.714a1.429 1.429 0 0 1 0-2.857h25.715a1.429 1.429 0 0 1 0 2.857zM50 48.571H38.571a1.429 1.429 0 1 1 0-2.857H50a1.429 1.429 0 1 1 0 2.857zM64.286 40H50a1.429 1.429 0 0 1 0-2.857h14.286a1.429 1.429 0 1 1 0 2.857zm0-8.571H30a1.429 1.429 0 0 1 0-2.857h34.286a1.429 1.429 0 1 1 0 2.857z" class="cls-3"/>
        </g>
    </g>
</svg>
