<svg xmlns="http://www.w3.org/2000/svg" width="34.42" height="34.42" viewBox="0 0 34.42 34.42">
    <defs>
        <style>
            .cls-1{fill:#155495}
        </style>
    </defs>
    <g id="contract_7_">
        <g id="Group_906" transform="translate(20.116)">
            <g id="Group_905">
                <path id="Path_2439" d="M305.292 5.877a3.006 3.006 0 0 0-.886-2.139L301.554.886A3.093 3.093 0 0 0 299.4 0h-.173v6.05h6.07v-.173z" class="cls-1" transform="translate(-299.222)"/>
            </g>
        </g>
        <g id="Group_908">
            <g id="Group_907">
                <path id="Path_2440" d="M18.416 20.809a4.048 4.048 0 0 1 .969-1.574l6.828-6.8V8.067h-7.086a.98.98 0 0 1-.976-1.008V0H3.025A3.029 3.029 0 0 0 0 3.025v28.37a3.029 3.029 0 0 0 3.025 3.025H23.16a3.052 3.052 0 0 0 3.052-3.025v-7.526L25.1 24.95a4.01 4.01 0 0 1-1.568.967l-3.206 1.07-.488.027a2.521 2.521 0 0 1-2.389-3.322zM5.042 18.151h10.051a1.008 1.008 0 1 1 0 2.017H5.042a1.008 1.008 0 1 1 0-2.017zm-1.008-3.025a1.008 1.008 0 0 1 1.008-1.008h10.051a1.008 1.008 0 1 1 0 2.017H5.042a1.008 1.008 0 0 1-1.008-1.009zm0 8.067a1.008 1.008 0 0 1 1.008-1.008h10.051a1.008 1.008 0 1 1 0 2.017H5.042a1.008 1.008 0 0 1-1.008-1.009zm15.093 5.042a1.008 1.008 0 1 1 0 2.017h-6.05a1.008 1.008 0 1 1 0-2.017zM5.042 12.1a1.008 1.008 0 1 1 0-2.017h14.085a1.008 1.008 0 1 1 0 2.017z" class="cls-1"/>
            </g>
        </g>
        <g id="Group_910" transform="translate(19.338 21.701)">
            <g id="Group_909">
                <path id="Path_2441" d="M288.567 322.808l-.877 2.632a.5.5 0 0 0 .638.638l2.63-.878z" class="cls-1" transform="translate(-287.663 -322.808)"/>
            </g>
        </g>
        <g id="Group_912" transform="translate(21.433 13.399)">
            <g id="Group_911">
                <path id="Path_2442" d="M325.461 199.307l-6.641 6.641 2.864 2.864 6.641-6.642z" class="cls-1" transform="translate(-318.82 -199.307)"/>
            </g>
        </g>
        <g id="Group_914" transform="translate(29.5 9.946)">
            <g id="Group_913">
                <path id="Path_2443" d="M443.146 148.509a2.106 2.106 0 0 0-2.862 0l-1.465 1.465 2.864 2.864 1.465-1.465a2.03 2.03 0 0 0-.002-2.864z" class="cls-1" transform="translate(-438.819 -147.949)"/>
            </g>
        </g>
        <g id="Group_917" transform="translate(33.829 13.351)">
            <g id="Group_916">
                <g id="Group_915">
                    <path id="Path_2444" d="M503.215 198.814l.006-.006z" class="cls-1" transform="translate(-503.215 -198.794)"/>
                    <path id="Path_2445" d="M503.3 198.684l.009-.009z" class="cls-1" transform="translate(-503.297 -198.67)"/>
                </g>
            </g>
        </g>
    </g>
</svg>
