<svg xmlns="http://www.w3.org/2000/svg" width="8.941" height="10.997" viewBox="0 0 8.941 10.997">
    <g>
        <path d="M46.505 11h7.33a.808.808 0 0 0 .805-.805V5.811a.808.808 0 0 0-.805-.805h-.567V3.1a3.1 3.1 0 1 0-6.2 0v1.906h-.567a.808.808 0 0 0-.805.805v4.381a.808.808 0 0 0 .809.808zm1.118-7.9a2.547 2.547 0 0 1 5.094 0v1.906h-5.093zm-1.372 2.711a.255.255 0 0 1 .254-.254h7.33a.255.255 0 0 1 .254.254v4.381a.255.255 0 0 1-.254.254h-7.33a.255.255 0 0 1-.254-.254z" transform="translate(-45.7)"/>
        <path d="M195.623 307.945a1.123 1.123 0 1 0-1.123-1.123 1.124 1.124 0 0 0 1.123 1.123zm0-1.692a.571.571 0 1 1-.571.572.572.572 0 0 1 .571-.572z" transform="translate(-191.152 -298.822)"/>
    </g>
</svg>
